Visualising Music Sales | Lescai Teaching - Documentation pages
…
Tidying the data

simplifying the column name

music$metric <- ifelse(
  music$metric == "Value (Adjusted)",
  "adjusted_value",
  music$metric
)

some data are duplicated or missing

music[duplicated(music),]

## # A tibble: 39 x 5
##    format             metric  year records value
##    <chr>              <chr>  <dbl>   <dbl> <dbl>
##  1 Paid Subscriptions Units   1973       1    NA
##  2 Paid Subscriptions Units   1974       1    NA
##  3 Paid Subscriptions Units   1975       1    NA
##  4 Paid Subscriptions Units   1976       1    NA
##  5 Paid Subscriptions Units   1977       1    NA
##  6 Paid Subscriptions Units   1978       1    NA
##  7 Paid Subscriptions Units   1979       1    NA
##  8 Paid Subscriptions Units   1980       1    NA
##  9 Paid Subscriptions Units   1981       1    NA
## 10 Paid Subscriptions Units   1982       1    NA
## # … with 29 more rows
…
